<!-- Generator: Adobe Illustrator 18.0.0, SVG Export Plug-In  -->
<svg version="1.1"
	 xmlns="http://www.w3.org/2000/svg" xmlns:xlink="http://www.w3.org/1999/xlink" xmlns:a="http://ns.adobe.com/AdobeSVGViewerExtensions/3.0/"
	 x="0px" y="0px" width="188.5px" height="54.4px" viewBox="0 0 188.5 54.4" enable-background="new 0 0 188.5 54.4"
	 xml:space="preserve">
<defs>
</defs>
<g>
	<path fill="#FFFFFF" d="M29.7,26.9c0,8.5-6.9,13.6-15,13.6C6.5,40.5,0,35.4,0,26.9v-4.8h7.8v4.6c0,4.2,2.9,6.3,6.8,6.3
		c4,0,6.6-2.2,6.6-6.3V7.9h-7V0.6h15.4V26.9z"/>
	<path fill="#FFFFFF" d="M91.6,17.4v22.4h-8.4V0.4h2.6l22,22.4V0.6h8.4V40h-2.5L91.6,17.4z"/>
	<path fill="#FFFFFF" d="M149.5,8h-15.6v8h14.6v7.3h-14.6v9h16v7.6h-24.5V0.6h24.1V8z"/>
	<path fill="#FFFFFF" d="M171,16.5l3.9-7.8l4.7-8.1h8.9v1.2L175,24.2v15.7h-8.4V24.2L153.1,1.9V0.6h9L167,9l3.7,7.5H171z"/>
	<path fill="#FFFFFF" d="M56.3,28.6c-5.4,0-9.7-4.3-9.7-9.7c0-5.4,4.3-9.7,9.7-9.7V0C45.9,0,36.2,7,36.2,20.3s20.1,34.2,20.1,34.2"
		/>
	<path opacity="0.7" fill="#FFFFFF" d="M56.3,54.4c0,0,20.1-22.2,20.1-34.2C76.4,7.1,66.6,0,56.3,0v9.2c5.4,0,9.7,4.3,9.7,9.7
		c0,5.4-4.3,9.7-9.7,9.7"/>
</g>
</svg>