<!-- Generator: Adobe Illustrator 18.0.0, SVG Export Plug-In  -->
<svg version="1.1"
	 xmlns="http://www.w3.org/2000/svg" xmlns:xlink="http://www.w3.org/1999/xlink" xmlns:a="http://ns.adobe.com/AdobeSVGViewerExtensions/3.0/"
	 x="0px" y="0px" width="85.2px" height="87.6px" viewBox="0 0 85.2 87.6" enable-background="new 0 0 85.2 87.6"
	 xml:space="preserve">
<defs>
</defs>
<g>
	<g>
		<path fill="#7652B2" d="M44.3,8.8c0.5-6.1,5-8.8,8.9-8.8c3.8,0,8.3,2.7,8.7,8.7c0.3,0,0.6,0,0.8,0c1.6,0,3.2,0,4.8,0
			c1.8,0,3,1.2,3,3c0,2.9,0,5.7,0,8.6c0,1.8-1.3,3-3,3c-9.6,0-19.3,0-28.9,0c-1.8,0-3-1.2-3-3.1c0-2.8,0-5.6,0-8.4
			c0-1.9,1.2-3.1,3.1-3.1C40.5,8.8,42.4,8.8,44.3,8.8z M53.1,12c1.8,0,3.3-1.6,3.2-3.4c-0.1-1.7-1.6-3.2-3.3-3.2
			c-1.8,0-3.3,1.5-3.3,3.3C49.8,10.5,51.3,12,53.1,12z"/>
		<path fill="#7652B2" d="M64.8,35.1c2.5,0,5,0,7.5,0c0.9,0,1.2,0.2,1.2,1.1c-0.1,1.2,0,2.5,0,3.7c0,0.7-0.2,0.9-0.9,0.9
			c-5.2,0-10.5,0-15.7,0c-0.7,0-0.9-0.3-0.9-0.9c0-1.3,0-2.6,0-3.8c0-0.7,0.2-1,1-1C59.6,35.1,62.2,35.1,64.8,35.1z"/>
		<path fill="#7652B2" d="M64.7,55.4c-2.5,0-5,0-7.6,0c-1.1,0-1.2,0-1.2-1.2c0-1.2,0-2.4,0-3.6c0-0.6,0.2-0.9,0.9-0.9
			c5.2,0,10.5,0,15.7,0c0.7,0,0.9,0.3,0.9,0.9c0,1.3,0,2.6,0,3.9c0,0.7-0.3,0.9-1,0.9C69.9,55.4,67.3,55.4,64.7,55.4z"/>
		<path fill="#7652B2" d="M64.7,70.1c-2.6,0-5.1,0-7.7,0c-0.8,0-1.1-0.2-1.1-1c0.1-1.3,0-2.6,0-3.9c0-0.6,0.2-0.8,0.8-0.8
			c5.3,0,10.6,0,15.9,0c0.6,0,0.8,0.3,0.8,0.8c0,1.3,0,2.7,0,4c0,0.7-0.3,0.9-1,0.9C69.9,70,67.3,70.1,64.7,70.1z"/>
		<path fill="#7652B2" d="M39.9,37.1c1.9-2,3.8-3.9,5.6-5.8c0.3-0.3,0.5-0.6,0.8-0.9c1.5-1.5,1.5-1.5,3.1-0.2
			c0.8,0.6,0.8,0.9,0.2,1.7c-2.4,3.2-4.7,6.4-7.1,9.6c-0.4,0.5-0.7,1-1.1,1.5c-0.8,1-2.1,1-2.9-0.1c-1.9-2.7-3.8-5.4-5.6-8.1
			c-0.4-0.5-0.3-0.9,0.1-1.4c1.6-1.6,1.8-1.6,3.4,0C37.6,34.7,38.7,35.9,39.9,37.1z"/>
		<path fill="#7652B2" d="M39.9,51.7c2.3-2.3,4.4-4.6,6.5-6.8c1.3-1.3,1.3-1.3,2.8-0.2c0.1,0.1,0.1,0.1,0.2,0.2
			c0.7,0.4,0.7,0.9,0.2,1.6c-2.8,3.7-5.5,7.4-8.2,11c-0.9,1.2-2.2,1.1-3-0.1c-1.9-2.6-3.7-5.3-5.5-7.9c-0.4-0.6-0.3-1,0.2-1.5
			c1.7-1.5,1.7-1.5,3.3,0.1C37.5,49.3,38.7,50.5,39.9,51.7z"/>
		<path fill="#7652B2" d="M39.5,66c1.7-1.5,3.4-2.9,4.9-4.4c0.9-0.8,1.7-1.8,2.6-2.7c0.4-0.5,0.9-0.6,1.4-0.1
			c2.1,1.6,1.9,1.4,0.5,3.3c-2.5,3.3-4.9,6.6-7.3,9.9c-1.1,1.5-2.3,1.5-3.4-0.1c-1.8-2.5-3.5-5-5.3-7.5c-0.5-0.7-0.4-1.2,0.2-1.7
			c1.6-1.4,1.6-1.4,3.1,0.1C37.5,63.9,38.7,65.1,39.5,66z"/>
		<path fill="#7652B2" d="M73.6,20.4c0-2.9,0-5.8,0-8.6c2.2,0,4.4-0.2,6.5,0c3.1,0.3,5.1,2.8,5.1,6c0,9.4,0,18.8,0,28.1
			c0,11.8,0,23.6,0,35.3c0,3.9-2.4,6.3-6.3,6.3c-17.2,0-34.4,0-51.6,0c-3.9,0-6.3-2.4-6.3-6.3c0-21.1,0-42.1,0-63.2
			c0-4,2.4-6.4,6.3-6.4c1.7,0,3.4,0,5.2,0c0,2.9,0,5.7,0,8.7c-1.4,0-2.9,0-4.3,0c-1.2,0-1.4,0.2-1.4,1.4c0,18.5,0,37.1,0,55.6
			c0,1.2,0.2,1.5,1.5,1.5c16.5,0,33.1,0,49.6,0c1.4,0,1.6-0.2,1.6-1.6c0-18.5,0-37,0-55.5c0-1.2-0.2-1.4-1.4-1.4
			C76.5,20.4,75.1,20.4,73.6,20.4z"/>
	</g>
	<polygon opacity="0.1" fill="#162E3B" points="0,53 23,53 26.1,83.9 25.4,87.1 	"/>
</g>
</svg>