<!-- Generator: Adobe Illustrator 18.0.0, SVG Export Plug-In  -->
<svg version="1.1"
	 xmlns="http://www.w3.org/2000/svg" xmlns:xlink="http://www.w3.org/1999/xlink" xmlns:a="http://ns.adobe.com/AdobeSVGViewerExtensions/3.0/"
	 x="0px" y="0px" width="49.4px" height="36.4px" viewBox="0 0 49.4 36.4" enable-background="new 0 0 49.4 36.4"
	 xml:space="preserve">
<defs>
</defs>
<g opacity="0.4">
	<path fill="#FFFFFF" d="M0,34.5c0.8-2.2,1.7-4.4,2.5-6.7c1.7-4.7,3.5-9.4,5.2-14.1c0.3-0.9,0.8-1.2,1.7-1.2c2.1,0,4.2,0,6.3,0
		c0.3,0,0.5,0.1,0.6,0.4c0.3,0.9,0.6,1.7,1,2.7c-0.2,0-0.4,0-0.5,0c-2,0-4,0-6,0c-0.3,0-0.5,0.1-0.6,0.4c-2.1,5.7-4.2,11.3-6.3,17
		c0,0.1-0.1,0.2-0.1,0.4c13.9,0,27.8,0,41.8,0c-0.1-0.2-0.1-0.4-0.2-0.5c-2.1-5.6-4.1-11.2-6.2-16.8c-0.1-0.3-0.2-0.4-0.6-0.4
		c-2,0-4,0-6,0c-0.2,0-0.3,0-0.6,0c0.2-0.6,0.4-1.1,0.6-1.6c0.1-0.1,0.1-0.3,0.2-0.4c0.4-1.1,0.4-1.1,1.6-1.1c1.8,0,3.6,0,5.4,0
		c1,0,1.4,0.3,1.8,1.3c2.5,6.9,5.1,13.7,7.6,20.6c0,0.1,0.1,0.1,0.1,0.2c0,0.3,0,0.5,0,0.8c-0.4,0.8-1,1.1-1.9,1.1
		c-15.1,0-30.3,0-45.4,0c-0.9,0-1.7-0.3-2.1-1.1C0,35,0,34.7,0,34.5z"/>
	<path fill="#FFFFFF" d="M24.6,22.2c-0.9-1.5-1.8-2.9-2.6-4.3c-1.5-2.5-2.7-5.1-3.4-8C18.2,8,18,6.1,18.8,4.2c0.9-2.3,2.6-3.8,5-4.1
		c2.9-0.4,5.4,1.2,6.6,3.8c0.8,1.8,0.8,3.7,0.3,5.5c-0.4,1.5-0.8,3-1.4,4.4C28.5,16,25.9,20.5,24.6,22.2z M24.7,9.2
		c1.6,0,2.8-1.2,2.8-2.8c0-1.5-1.3-2.7-2.8-2.7c-1.6,0-2.8,1.2-2.8,2.8C21.9,8,23.2,9.2,24.7,9.2z"/>
	<path fill="#FFFFFF" d="M13.7,23.8c0.1,0.5,0.3,1,0.4,1.5c-1.6,0.5-3.1,1.1-4.6,1.6C9.4,26.5,9.2,26,9,25.5
		C10.6,24.9,12.1,24.4,13.7,23.8z"/>
	<path fill="#FFFFFF" d="M34.8,25.6c0.1-0.4,0.2-0.9,0.4-1.5c1.4,0.5,2.8,1.1,4.3,1.6c-0.1,0.5-0.2,1-0.4,1.5
		C37.7,26.7,36.3,26.1,34.8,25.6z"/>
	<path fill="#FFFFFF" d="M22.4,22.7c0,0.6,0,1.1,0,1.5c-1.4,0.1-2.9,0.2-4.4,0.3c-0.1-0.5-0.1-0.9-0.2-1.5
		C19.4,22.9,20.9,22.8,22.4,22.7z"/>
	<path fill="#FFFFFF" d="M31.1,23.3c-0.1,0.5-0.2,1-0.2,1.5c-1.5-0.1-2.9-0.3-4.4-0.4c0-0.5,0.1-1,0.1-1.5
		C28.1,23,29.6,23.1,31.1,23.3z"/>
</g>
</svg>