<!-- Generator: Adobe Illustrator 18.0.0, SVG Export Plug-In  -->
<svg version="1.1"
	 xmlns="http://www.w3.org/2000/svg" xmlns:xlink="http://www.w3.org/1999/xlink" xmlns:a="http://ns.adobe.com/AdobeSVGViewerExtensions/3.0/"
	 x="0px" y="0px" width="132.8px" height="102.8px" viewBox="0 0 132.8 102.8" enable-background="new 0 0 132.8 102.8"
	 xml:space="preserve">
<defs>
</defs>
<g>
	<g>
		<path fill="#7652B2" d="M0,97.7c2.2-6,4.5-11.9,6.7-17.9c4.7-12.7,9.4-25.3,14.1-38c0.9-2.4,2.1-3.3,4.7-3.3c5.6,0,11.2,0,16.9,0
			c0.9,0,1.3,0.3,1.5,1.1c0.8,2.4,1.7,4.7,2.7,7.1c-0.5,0-1,0.1-1.5,0.1c-5.4,0-10.7,0-16.1,0c-0.8,0-1.3,0.2-1.6,1
			C21.8,63,16.1,78.2,10.5,93.4c-0.1,0.3-0.2,0.6-0.3,1c37.5,0,74.9,0,112.4,0c-0.2-0.5-0.3-1-0.4-1.4c-5.6-15-11.2-30.1-16.7-45.2
			c-0.3-0.8-0.7-1.1-1.6-1.1c-5.4,0-10.7,0-16.1,0c-0.5,0-0.9,0-1.6,0c0.6-1.5,1.2-2.9,1.7-4.3c0.1-0.4,0.3-0.7,0.4-1.1
			c1.1-2.9,1.1-2.9,4.2-2.9c4.9,0,9.8,0,14.7,0c2.7,0,3.9,0.8,4.8,3.4c6.8,18.4,13.7,36.9,20.5,55.3c0.1,0.2,0.2,0.3,0.2,0.4
			c0,0.7,0,1.4,0,2.1c-1,2.1-2.6,3.1-5,3.1c-40.7,0-81.5,0-122.2,0c-2.5,0-4.5-0.7-5.5-3.1C0,99,0,98.4,0,97.7z"/>
		<path fill="#7652B2" d="M37,69c0.4,1.5,0.7,2.7,1.1,4c-4.2,1.5-8.2,2.9-12.4,4.4c-0.5-1.3-0.9-2.5-1.4-3.9
			C28.5,72,32.7,70.5,37,69z"/>
		<path fill="#7652B2" d="M93.7,73.8c0.3-1.2,0.7-2.4,1.1-4c3.9,1.4,7.6,2.8,11.5,4.3c-0.3,1.3-0.6,2.6-1,4
			C101.4,76.7,97.6,75.3,93.7,73.8z"/>
		<path fill="#7652B2" d="M60.3,65.9c0,1.6,0,2.8,0,4.2c-3.9,0.2-7.7,0.5-11.7,0.7c-0.2-1.2-0.4-2.5-0.6-4.1
			C52.1,66.4,56.1,66.2,60.3,65.9z"/>
		<path fill="#7652B2" d="M83.7,67.6c-0.2,1.5-0.4,2.7-0.6,4.1c-4-0.4-7.8-0.8-11.8-1.2c0.1-1.3,0.2-2.6,0.3-4.1
			C75.6,66.8,79.6,67.2,83.7,67.6z"/>
	</g>
</g>
<path fill="#7652B2" d="M66.5,0c-11,0-21.1,7.4-21.1,21.3s21,35.9,21,35.9s21.1-23.3,21.1-35.9C87.5,7.4,77.3,0,66.5,0z M66.4,30.1
	c-5.6,0-10.2-4.6-10.2-10.2c0-5.6,4.6-10.2,10.2-10.2c5.6,0,10.2,4.6,10.2,10.2C76.6,25.5,72,30.1,66.4,30.1z"/>
</svg>